IQ Paper NEOGN:
#c4f63e
#cadb3c

aad151


#c4f63d
3965PC


87f717


Color palette:
https://www.sessions.edu/color-calculator-results/?colors=c4f63d,f63dc5,f6553d,3df6a0

1: green-yellow
#c4f63d
rgba(196, 246, 61, 1)
2: pink
#f63dc5
3: red
#f6553d
4: greenish
#3df6a0 
#3df66e
5: blue-violet
#6e3df6


